timeStamp,elapsed,label,responseCode,responseMessage,threadName,dataType,success,failureMessage,bytes,sentBytes,grpThreads,allThreads,Latency,IdleTime,Connect
1524757165126,300,28 /,200,OK,Thread Group 1-1,text,true,,1434,343,1,1,295,0,199
1524757164670,300,Open Login Page,200,"Number of samples in transaction : 1, number of failing samples : 0",Thread Group 1-1,,true,,1434,343,1,1,295,473,199
1524757165446,16796,41 /,200,OK,Thread Group 1-1,text,true,,5454,1416,1,1,16728,0,0
1524757182244,57,42 /reports,200,OK,Thread Group 1-1,text,true,,3502,813,1,1,4,0,0
1524757165444,16853,Login,200,"Number of samples in transaction : 2, number of failing samples : 0",Thread Group 1-1,,true,,8956,2229,1,1,16732,5,0
1524757184304,59,48 /management/index.php,200,OK,Thread Group 1-1,text,true,,6886,427,1,1,58,0,3
1524757182302,59,Open Risk Management Menu,200,"Number of samples in transaction : 1, number of failing samples : 0",Thread Group 1-1,,true,,6886,427,1,1,58,2016,3
1524757186379,146,58 /management/index.php,200,OK,Thread Group 1-1,text,true,,6972,6120,1,1,145,0,48
1524757184377,146,Submit Risk with file attachment,200,"Number of samples in transaction : 1, number of failing samples : 0",Thread Group 1-1,,true,,6972,6120,1,1,145,2008,48
1524757186534,65,66 /logout.php,200,OK,Thread Group 1-1,text,true,,2003,810,1,1,23,0,0
1524757188603,24,67 /index.php,200,OK,Thread Group 1-1,text,true,,1365,428,1,1,24,0,2
1524757186533,89,Logout,200,"Number of samples in transaction : 2, number of failing samples : 0",Thread Group 1-1,,true,,3368,1238,1,1,47,2007,2
1524757164670,17447,Submit Risk,200,"Number of samples in transaction : 11, number of failing samples : 0",Thread Group 1-1,,true,,27616,10357,1,1,17277,6511,252
1524757188932,23,28 /,200,OK,Thread Group 1-1,text,true,,1364,390,1,1,23,0,0
1524757188631,23,Open Login Page,200,"Number of samples in transaction : 1, number of failing samples : 0",Thread Group 1-1,,true,,1364,390,1,1,23,302,0
1524757188957,16729,41 /,200,OK,Thread Group 1-1,text,true,,5456,1416,1,1,16687,0,0
1524757205694,39,42 /reports,200,OK,Thread Group 1-1,text,true,,3504,813,1,1,4,0,0
1524757188956,16768,Login,200,"Number of samples in transaction : 2, number of failing samples : 0",Thread Group 1-1,,true,,8960,2229,1,1,16691,10,0
1524757207736,67,48 /management/index.php,200,OK,Thread Group 1-1,text,true,,6888,427,1,1,66,0,3
1524757205735,67,Open Risk Management Menu,200,"Number of samples in transaction : 1, number of failing samples : 0",Thread Group 1-1,,true,,6888,427,1,1,66,2006,3
1524757209809,96,58 /management/index.php,200,OK,Thread Group 1-1,text,true,,6970,6236,1,1,95,0,11
1524757207808,96,Submit Risk with file attachment,200,"Number of samples in transaction : 1, number of failing samples : 0",Thread Group 1-1,,true,,6970,6236,1,1,95,2002,11
1524757209907,44,66 /logout.php,200,OK,Thread Group 1-1,text,true,,1934,838,1,1,27,0,0
1524757211953,37,67 /index.php,200,OK,Thread Group 1-1,text,true,,1365,409,1,1,37,0,2
1524757209906,81,Logout,200,"Number of samples in transaction : 2, number of failing samples : 0",Thread Group 1-1,,true,,3299,1247,1,1,64,2004,2
1524757188631,17035,Submit Risk,200,"Number of samples in transaction : 11, number of failing samples : 0",Thread Group 1-1,,true,,27481,10529,1,1,16939,6325,16
